<svg xmlns="http://www.w3.org/2000/svg" xmlns:xlink="http://www.w3.org/1999/xlink" width="398.004" height="380.005" viewBox="0 0 398.004 380.005">
  <defs>
    <filter id="Line_516" x="0" y="11" width="273.005" height="220.004" filterUnits="userSpaceOnUse">
      <feOffset dy="3" input="SourceAlpha"/>
      <feGaussianBlur stdDeviation="3" result="blur"/>
      <feFlood flood-opacity="0.161"/>
      <feComposite operator="in" in2="blur"/>
      <feComposite in="SourceGraphic"/>
    </filter>
    <filter id="Line_517" x="125" y="0" width="273.004" height="220.004" filterUnits="userSpaceOnUse">
      <feOffset dy="3" input="SourceAlpha"/>
      <feGaussianBlur stdDeviation="3" result="blur-2"/>
      <feFlood flood-opacity="0.161"/>
      <feComposite operator="in" in2="blur-2"/>
      <feComposite in="SourceGraphic"/>
    </filter>
    <filter id="Line_518" x="32" y="160" width="273.004" height="220.005" filterUnits="userSpaceOnUse">
      <feOffset dy="3" input="SourceAlpha"/>
      <feGaussianBlur stdDeviation="3" result="blur-3"/>
      <feFlood flood-opacity="0.161"/>
      <feComposite operator="in" in2="blur-3"/>
      <feComposite in="SourceGraphic"/>
    </filter>
  </defs>
  <g id="Group_5796" data-name="Group 5796" transform="translate(-733.498 103.502)">
    <g transform="matrix(1, 0, 0, 1, 733.5, -103.5)" filter="url(#Line_516)">
      <line id="Line_516-2" data-name="Line 516" x1="213" y2="160" transform="translate(30 38)" fill="none" stroke="#6f368e" stroke-linecap="round" stroke-width="30"/>
    </g>
    <g transform="matrix(1, 0, 0, 1, 733.5, -103.5)" filter="url(#Line_517)">
      <line id="Line_517-2" data-name="Line 517" x1="213" y2="160" transform="translate(155 27)" fill="none" stroke="#6f368e" stroke-linecap="round" stroke-width="30"/>
    </g>
    <g transform="matrix(1, 0, 0, 1, 733.5, -103.5)" filter="url(#Line_518)">
      <line id="Line_518-2" data-name="Line 518" x1="213" y2="160" transform="translate(62 187)" fill="none" stroke="#6f368e" stroke-linecap="round" stroke-width="30"/>
    </g>
  </g>
</svg>
