<svg xmlns="http://www.w3.org/2000/svg" width="54" height="32" viewBox="0 0 54 32">
  <g id="Group_5382" data-name="Group 5382" transform="translate(9850 4148)">
    <g id="Rectangle_2" data-name="Rectangle 2" transform="translate(-9850 -4148)" fill="#fff" stroke="#e8e8e8" stroke-miterlimit="10" stroke-width="1">
      <rect width="54" height="32" rx="15" stroke="none"/>
      <rect x="0.5" y="0.5" width="53" height="31" rx="14.5" fill="none"/>
    </g>
    <g id="Group_5381" data-name="Group 5381" transform="translate(34 69.52)">
      <g id="american-express-2" transform="translate(-9881.252 -4211.253)">
        <g id="Group_5380" data-name="Group 5380">
          <path id="Path_17630" data-name="Path 17630" d="M74.59,203.764h1.624l-.812-2.486Z" transform="translate(-70.574 -198.97)" fill="#0070cf"/>
          <path id="Path_17631" data-name="Path 17631" d="M155.946,286.107v1.154h2.731V288.5h-2.731v1.332h3.026l1.4-1.865-1.328-1.865Z" transform="translate(-143.295 -272.969)" fill="#0070cf"/>
          <path id="Path_17632" data-name="Path 17632" d="M349.439,201.278l-.886,2.486h1.7Z" transform="translate(-315.459 -198.97)" fill="#0070cf"/>
          <path id="Path_17633" data-name="Path 17633" d="M214.187,286.3v-5.06l-1.919,2.486Z" transform="translate(-193.639 -268.724)" fill="#0070cf"/>
          <path id="Path_17634" data-name="Path 17634" d="M244.529,286.906c-.074-.533-.369-.8-.812-.8h-1.549v1.6h1.624A.7.7,0,0,0,244.529,286.906Z" transform="translate(-220.364 -272.969)" fill="#0070cf"/>
          <path id="Path_17635" data-name="Path 17635" d="M295.687,288.137a.756.756,0,0,0,.222-.621.527.527,0,0,0-.222-.621,1.212,1.212,0,0,0-.59-.089h-1.476v1.421H295.1A1.213,1.213,0,0,0,295.687,288.137Z" transform="translate(-266.357 -273.578)" fill="#0070cf"/>
          <path id="Path_17636" data-name="Path 17636" d="M76.705,183.2v1.065l-.442-1.065H72.795v1.065l-.443-1.065H67.628a3.871,3.871,0,0,0-2.066.533V183.2H62.241v.533a1.9,1.9,0,0,0-1.4-.533H48.957l-.812,2.219-.812-2.219H43.569v1.065L43.2,183.2H39.953l-1.476,4.172-1.7,4.527-.031.089H40.59l.027-.089.443-1.331h.959l.443,1.42h4.28v-1.065l.369,1.065h2.14l.369-1.065v1.065H59.879v-2.308h.148c.147,0,.147,0,.147.266V191.9h5.314v-.533a3.818,3.818,0,0,0,1.992.533h2.214l.443-1.42h1.033l.443,1.42h4.28v-1.331l.665,1.331h3.469v-8.7H76.705Zm-25.018,7.457H50.506v-4.883l-.074.2v0l-1.717,4.681H47.628l-1.771-4.883v4.883H43.348l-.517-1.332h-2.51l-.517,1.332h-1.3l2.183-6.214h1.845l2.066,5.947v-5.947h1.955l.035.089h0l.931,2.438.669,1.826.024-.092,1.476-4.261h1.993v6.214Zm5.092-4.883H53.9v1.154h2.8v1.243H53.9v1.243H56.78v1.331H52.647v-6.3H56.78v1.331Zm5.264,2.289.007.005a1,1,0,0,1,.072.105,1.952,1.952,0,0,1,.261,1.041v.025s0,.009,0,.014,0,0,0,.008c0,.049,0,.1,0,.153v1.243H61.281v-.71a2.473,2.473,0,0,0-.222-1.243.681.681,0,0,0-.217-.178c-.111-.086-.32-.088-.668-.088H58.846v2.219H57.591v-6.214h2.8a2.41,2.41,0,0,1,1.476.266,1.6,1.6,0,0,1,.588,1.38,1.786,1.786,0,0,1-.884,1.638A.955.955,0,0,1,62.043,188.061Zm2.485,2.594H63.274v-6.214h1.255Zm14.391,0H77.3l-2.362-4.705v3.906l-.008-.009v.812H73.68v0H72.425l-.443-1.332H69.4l-.443,1.42h-1.4a2.312,2.312,0,0,1-1.771-.71,3.522,3.522,0,0,1-.664-2.4,4.151,4.151,0,0,1,.664-2.486,2.1,2.1,0,0,1,1.845-.71h1.181v1.331H67.628a1.214,1.214,0,0,0-.96.355,2.375,2.375,0,0,0-.369,1.42,2.2,2.2,0,0,0,.369,1.509,1.061,1.061,0,0,0,.886.356h.517l1.7-4.882h1.845l2.067,5.947V184.53h1.845l2.14,4.35v-4.35H78.92v6.125h0Z" transform="translate(-36.748 -183.198)" fill="#0070cf"/>
          <path id="Path_17637" data-name="Path 17637" d="M247.091,204.621a.483.483,0,0,0,.058-.1,1.121,1.121,0,0,0,.1-.669.593.593,0,0,0-.011-.081c0-.007,0-.013,0-.021h0a.477.477,0,0,0-.224-.3,1.221,1.221,0,0,0-.591-.088h-1.476v1.421h1.476a1.214,1.214,0,0,0,.591-.089.287.287,0,0,0,.061-.053h0Z" transform="translate(-222.848 -200.79)" fill="#0070cf"/>
          <path id="Path_17638" data-name="Path 17638" d="M169.931,270.5a3.946,3.946,0,0,0-.369-1.687v-3.995h0v-.267h-3.554a1.966,1.966,0,0,0-1.019.532v-.532h-3.395a2.082,2.082,0,0,0-1.476.532v-.532h-6.052v.532a2.5,2.5,0,0,0-1.624-.532h-3.985v.532a2.452,2.452,0,0,0-1.7-.533H142.33l-1.033,1.332-.959-1.332H133.7v8.966h6.495l1.067-1.284.925,1.284h4.133v-2.042h.369a3.783,3.783,0,0,0,1.7-.267v2.4H151.7V271.3h.147c.222,0,.222,0,.222.266v2.042h10.037a2.537,2.537,0,0,0,1.7-.533v.533h3.174a2.858,2.858,0,0,0,1.771-.444,3.125,3.125,0,0,0,1.171-2.394c0-.031.007-.061.009-.092l0,0C169.929,270.615,169.931,270.558,169.931,270.5Zm-23.247-.533h-1.476v2.308h-2.426l-1.412-1.953,0,.006-.069-.1-1.624,2.042H134.95v-6.214h4.8l1.311,1.727.276.362.037-.047,1.55-2.042h3.911a1.842,1.842,0,0,1,1.931,1.154,3,3,0,0,1,.061.621A1.861,1.861,0,0,1,146.684,269.968Zm7.38-.089a2.345,2.345,0,0,1,.221,1.154v1.242h-1.254v-.8a2.315,2.315,0,0,0-.222-1.243c-.147-.266-.443-.266-.885-.266H150.6v2.308h-1.255v-6.3h2.8a2.532,2.532,0,0,1,1.476.266,1.649,1.649,0,0,1,.664,1.421,1.8,1.8,0,0,1-.885,1.687A1.288,1.288,0,0,1,154.064,269.879Zm5.092-2.575h-2.879v1.154h2.8V269.7h-2.8v1.243h2.879v1.331h-4.133v-6.3h4.133Zm3.1,4.972h-2.362v-1.331h2.362a.555.555,0,0,0,.517-.178.742.742,0,0,0,0-.888.567.567,0,0,0-.443-.178c-1.181-.089-2.583,0-2.583-1.953a1.69,1.69,0,0,1,1.771-1.864h2.435v1.509h-2.288a.929.929,0,0,0-.517.089c-.147.089-.147.267-.147.444a.465.465,0,0,0,.295.443.8.8,0,0,0,.443.089h.664a1.689,1.689,0,0,1,1.4.533,2.076,2.076,0,0,1,.369,1.332A1.709,1.709,0,0,1,162.256,272.275Zm6.347-.622a1.944,1.944,0,0,1-1.55.622h-2.361v-1.331h2.361c.221,0,.369,0,.517-.178a.741.741,0,0,0,0-.888.565.565,0,0,0-.443-.178c-1.18-.089-2.583,0-2.583-1.953a1.735,1.735,0,0,1,1.391-1.832,2.3,2.3,0,0,1,.38-.032h2.436v1.509h-2.288a.926.926,0,0,0-.516.089.754.754,0,0,0-.148.444.387.387,0,0,0,.3.443.8.8,0,0,0,.443.089h.664a1.952,1.952,0,0,1,.79.142,1.8,1.8,0,0,1,1.033,1.4,2.386,2.386,0,0,1,.023.319A2.011,2.011,0,0,1,168.6,271.654Z" transform="translate(-123.405 -254.166)" fill="#0070cf"/>
        </g>
      </g>
    </g>
  </g>
</svg>
