<svg xmlns="http://www.w3.org/2000/svg" width="115" height="32" viewBox="0 0 115 32">
  <g id="Group_4613" data-name="Group 4613" transform="translate(-13713 3895)">
    <g id="Group_4684" data-name="Group 4684" transform="translate(13713 -3895)">
      <g id="Rectangle_648" data-name="Rectangle 648" fill="#fff" stroke="#e8e8e8" stroke-width="1">
        <rect width="115" height="32" rx="16" stroke="none"/>
        <rect x="0.5" y="0.5" width="114" height="31" rx="15.5" fill="none"/>
      </g>
      <g id="surface1" transform="translate(13.209 6.957)">
        <path id="Path_17533" data-name="Path 17533" d="M157.941,194.888a2.664,2.664,0,0,1-2.48,1.345,2.36,2.36,0,1,1,0-4.707,2.667,2.667,0,0,1,2.48,1.358Zm0-3.324a3.381,3.381,0,0,0-2.685-1.091,3.425,3.425,0,1,0,0,6.813,3.358,3.358,0,0,0,2.685-1.091v3.451h1.39v-9.008h-1.39" transform="translate(-151.48 -187.45)" fill="#4f008c"/>
        <path id="Path_17534" data-name="Path 17534" d="M199.285,177.067h1.421v-1.7h-1.421Zm0,0" transform="translate(-187.938 -175.224)" fill="#4f008c"/>
        <path id="Path_17535" data-name="Path 17535" d="M191.7,192.368h1.8v5.442h1.422v-6.47H191.7" transform="translate(-182.153 -188.152)" fill="#4f008c"/>
        <path id="Path_17536" data-name="Path 17536" d="M217.216,186.748v-3.59h2.764V182.13h-2.764v-2.169h-1.421v2.169h-1.6v1.028h1.6v3.73c0,1.065.789,1.712,2.322,1.712h1.912v-1.015H218.2c-.568,0-.979-.254-.979-.837" transform="translate(-199.312 -178.942)" fill="#4f008c"/>
        <path id="Path_17537" data-name="Path 17537" d="M250.843,195.717a2.958,2.958,0,0,1-2.685,1.345c-1.011,0-1.642-.381-1.642-1,0-.57.474-.9,1.358-1.015l2.969-.393Zm-1.026-4.377h-3.98v1.028h3.949c.68,0,1.058.3,1.058.875v.494l-3.474.432c-1.438.177-2.291.85-2.291,1.89,0,1.155,1.122,1.929,2.781,1.929a3.8,3.8,0,0,0,2.985-1.142v.964h1.407v-4.694c0-1.129-.869-1.776-2.433-1.776" transform="translate(-222.862 -188.152)" fill="#4f008c"/>
        <path id="Path_17538" data-name="Path 17538" d="M283.553,177.118v1.294h-1.58v1.028h1.58v5.442h1.421V179.44h2.448v-1.028h-2.448v-1.167c0-.609.442-.863,1.074-.863h2.18v-1.015h-2.274c-1.58,0-2.4.66-2.4,1.751" transform="translate(-250.999 -175.224)" fill="#4f008c"/>
        <path id="Path_17539" data-name="Path 17539" d="M470.285,176.294H471.5v-1.345h-1.216Zm0,0" transform="translate(-394.613 -174.886)" fill="#4f008c"/>
        <path id="Path_17540" data-name="Path 17540" d="M414.883,183.659a2.717,2.717,0,0,1-1.864.507c-1.264,0-1.817-.559-1.817-1.23,0-.8.664-1.383,2.117-1.383a3.828,3.828,0,0,1,1.564.3Zm-11.1,2.714h-4V184.6a16.433,16.433,0,0,1,4.518-1.192c1.105,0,1.911.469,1.911,1.6,0,1.1-.774,1.37-2.433,1.37m12.348-5.417a6.328,6.328,0,0,0-2.685-.6c-2.148,0-3.555,1.116-3.555,2.715,0,1.18.837,2.271,2.844,2.271a2.657,2.657,0,0,0,2.148-.71v.812c0,.723-.426.926-1.533.926h-4.544c-.774,0-1.264-.051-1.484-.355a2.79,2.79,0,0,0,.189-1.078c0-1.814-1.264-2.715-3.049-2.715a15.074,15.074,0,0,0-4.676,1.256v-4.872h-1.247v7.764h-1.775c-1.532,0-1.9-.127-1.9-1.2v-6.559h-1.248v6.559c0,1.751.743,2.385,2.781,2.385h7.38a4.653,4.653,0,0,0,2.922-.723c.332.469.963.723,2.1.723h4.53c2.069,0,2.811-.737,2.811-2.17" transform="translate(-336.146 -177.848)" fill="#4f008c"/>
        <path id="Path_17541" data-name="Path 17541" d="M478.871,176.294h1.2v-1.345h-1.2Zm0,0" transform="translate(-401.161 -174.886)" fill="#4f008c"/>
        <path id="Path_17542" data-name="Path 17542" d="M370.266,175.962h1.248v-1.345h-1.248Zm0,0" transform="translate(-318.335 -174.617)" fill="#4f008c"/>
        <path id="Path_17543" data-name="Path 17543" d="M325.4,191.1a2.608,2.608,0,0,1-1.864.52c-1.264,0-1.817-.571-1.817-1.256,0-.8.664-1.383,2.117-1.383a3.828,3.828,0,0,1,1.564.3Zm-1.437-3.312c-2.148,0-3.554,1.116-3.554,2.715,0,1.18.836,2.3,2.843,2.3a2.657,2.657,0,0,0,2.148-.71v.7c0,.8-.458,1.015-1.643,1.015H308.676v1.18h15.061c2.148,0,2.923-.762,2.923-2.271l-.016-4.326a6.328,6.328,0,0,0-2.685-.6" transform="translate(-271.364 -185.281)" fill="#4f008c"/>
        <path id="Path_17544" data-name="Path 17544" d="M368.848,253.877a1.636,1.636,0,0,0,.1.574,1.4,1.4,0,0,0,.278.466,1.256,1.256,0,0,0,.443.312,1.53,1.53,0,0,0,.6.112,1.5,1.5,0,0,0,.592-.112,1.32,1.32,0,0,0,.449-.312,1.368,1.368,0,0,0,.283-.466,1.657,1.657,0,0,0,.1-.574,1.69,1.69,0,0,0-.1-.578,1.323,1.323,0,0,0-.283-.467,1.352,1.352,0,0,0-.449-.308,1.5,1.5,0,0,0-.592-.112,1.53,1.53,0,0,0-.6.112,1.285,1.285,0,0,0-.443.308,1.357,1.357,0,0,0-.278.467,1.669,1.669,0,0,0-.1.578m.021,2.065h-.928V249.8h.928v2.7a1.419,1.419,0,0,1,.154-.209,1.51,1.51,0,0,1,.3-.262,1.878,1.878,0,0,1,.469-.221,2.092,2.092,0,0,1,.659-.092,2.437,2.437,0,0,1,.85.146,2.046,2.046,0,0,1,.7.426,2.02,2.02,0,0,1,.474.684,2.282,2.282,0,0,1,.175.914,2.251,2.251,0,0,1-.175.91,2.007,2.007,0,0,1-1.169,1.106,2.454,2.454,0,0,1-.85.145,2.066,2.066,0,0,1-1.128-.3,1.507,1.507,0,0,1-.3-.247,1.456,1.456,0,0,1-.154-.192" transform="translate(-316.562 -235.467)" fill="#4f008c"/>
        <path id="Path_17545" data-name="Path 17545" d="M391.921,266.3h-.937l.907-1.853-2.051-4.055h1.03l1.5,3.062,1.5-3.062h.958" transform="translate(-333.263 -244.041)" fill="#4f008c"/>
        <path id="Path_17546" data-name="Path 17546" d="M431.992,255.921a2.336,2.336,0,0,0,1.246-.286v-1.029a1.608,1.608,0,0,1-.795.191.966.966,0,0,1-.593-.153.582.582,0,0,1-.178-.477V249.8h-1.567v1.287h3.133v1.221h-3.133v2.164a1.3,1.3,0,0,0,.463,1.039,2.251,2.251,0,0,0,1.424.41m4.8,0a3.224,3.224,0,0,0,2.018-.62,2.073,2.073,0,0,0,.712-.963l-1.388-.372a1.058,1.058,0,0,1-.368.5,1.549,1.549,0,0,1-.974.3,1.7,1.7,0,0,1-1.057-.343,1.242,1.242,0,0,1-.439-.982,1.228,1.228,0,0,1,.439-.982,1.657,1.657,0,0,1,1.045-.334,1.439,1.439,0,0,1,.938.286,1.187,1.187,0,0,1,.356.5l1.412-.381a2.08,2.08,0,0,0-.665-.944,3.306,3.306,0,0,0-2.078-.639,3.427,3.427,0,0,0-2.147.7,2.249,2.249,0,0,0,.023,3.584,3.477,3.477,0,0,0,2.172.7m-10.017,0a3.054,3.054,0,0,0,1.875-.534,1.265,1.265,0,0,0,.511-1,1.18,1.18,0,0,0-.475-.934,2.734,2.734,0,0,0-1.306-.515l-.914-.143c-.38-.057-.593-.21-.593-.42,0-.276.332-.467.866-.467a1.292,1.292,0,0,1,.808.238.662.662,0,0,1,.225.391l1.318-.238a1.2,1.2,0,0,0-.487-.791,3.021,3.021,0,0,0-1.875-.563,2.95,2.95,0,0,0-1.745.5,1.283,1.283,0,0,0-.558,1.029,1.081,1.081,0,0,0,.427.877,2.84,2.84,0,0,0,1.246.506l.9.171c.451.086.653.219.653.457,0,.3-.332.468-.878.468a1.411,1.411,0,0,1-.914-.277.611.611,0,0,1-.237-.438l-1.353.238a1.271,1.271,0,0,0,.51.839,3.139,3.139,0,0,0,1.994.61" transform="translate(-359.517 -235.467)" fill="#4f008c"/>
      </g>
    </g>
  </g>
</svg>
