<svg xmlns="http://www.w3.org/2000/svg" xmlns:xlink="http://www.w3.org/1999/xlink" width="1205" height="191" viewBox="0 0 1205 191">
  <defs>
    <filter id="Path_18180" x="44.223" y="47.919" width="45.35" height="45.35" filterUnits="userSpaceOnUse">
      <feOffset dy="3" input="SourceAlpha"/>
      <feGaussianBlur stdDeviation="3" result="blur"/>
      <feFlood flood-opacity="0.161"/>
      <feComposite operator="in" in2="blur"/>
      <feComposite in="SourceGraphic"/>
    </filter>
    <filter id="Path_18171" x="43.629" y="48.275" width="30.234" height="29.414" filterUnits="userSpaceOnUse">
      <feOffset dy="3" input="SourceAlpha"/>
      <feGaussianBlur stdDeviation="3" result="blur-2"/>
      <feFlood flood-opacity="0.161"/>
      <feComposite operator="in" in2="blur-2"/>
      <feComposite in="SourceGraphic"/>
    </filter>
    <filter id="Path_18172" x="59.939" y="63.495" width="30.234" height="29.414" filterUnits="userSpaceOnUse">
      <feOffset dy="3" input="SourceAlpha"/>
      <feGaussianBlur stdDeviation="3" result="blur-3"/>
      <feFlood flood-opacity="0.161"/>
      <feComposite operator="in" in2="blur-3"/>
      <feComposite in="SourceGraphic"/>
    </filter>
  </defs>
  <g id="Group_5646" data-name="Group 5646" transform="translate(-81 -575)">
    <g id="Group_5570" data-name="Group 5570" transform="translate(81 575)">
      <path id="Path_18179" data-name="Path 18179" d="M0,0H1205V181.883c0,5.035-3.652,9.117-8.157,9.117H8.157C3.652,191,0,186.918,0,181.883Z" transform="translate(0)" fill="#e73e7a"/>
      <path id="Path_18175" data-name="Path 18175" d="M112.532,403.688a1.386,1.386,0,0,0-.168.01,1.882,1.882,0,0,0-1.41,2.12,1.707,1.707,0,0,0,1.773,1.664,1.579,1.579,0,0,0,1.088-.724,2.078,2.078,0,0,0,.327-1.36A1.744,1.744,0,0,0,112.532,403.688Z" transform="translate(36.844 -272.916)" fill="#60287e"/>
      <path id="Path_18176" data-name="Path 18176" d="M72.177,328.822l-.117-.185c-.179-.282-.354-.552-.523-.8-.123-.183-.242-.358-.359-.524s-.23-.324-.34-.472c-.22-.3-.425-.553-.615-.767a3.7,3.7,0,0,0-2.6-1.573,3.53,3.53,0,0,0-1.765.637c-.346.2-.78.447-1.272.722-2.078,1.164-6.4,3.587-6.973,5.011-.466,1.171-.038,2.963.458,5.037.135.567.275,1.153.4,1.756.979,4.631.995,10.029,1.01,15.249.016,5.566.032,10.824,1.166,14.782.178.611.316.716.317.716v0a5.065,5.065,0,0,0,1.559-.892c1.271-.877,3.853-2.29,6.842-3.925s6.346-3.472,9.04-5.13c4.078-2.509,4.67-3.418,4.754-3.637.423-1.122.2-2.853-.69-5.285A145.918,145.918,0,0,0,72.177,328.822Zm2.923,23.6a3.182,3.182,0,0,1-2.194,1.459,2.742,2.742,0,0,1-.383.027,3.505,3.505,0,0,1-3.233-3.42,3.8,3.8,0,0,1,2.874-4.283,2.862,2.862,0,0,1,.35-.022,3.524,3.524,0,0,1,3.255,3.443A4.279,4.279,0,0,1,75.1,352.426Z" transform="translate(76.861 -217.375)" fill="#60287e"/>
      <path id="Path_18178" data-name="Path 18178" d="M194.6,296.157a12.87,12.87,0,0,0-2.122.184c-6.352,1.039-16.913,6.368-21.9,11.029a5.078,5.078,0,0,1-1,1.555c-1.434,1.528-3.792,2.1-6.574,2.1-4.61,0-10.38-1.585-15.026-3.05-.356-.113-.657-.208-.893-.279a1,1,0,0,1-.6-1.192.826.826,0,0,1,1.007-.706c.241.073.547.169.909.284,10.936,3.451,17.687,3.917,20.064,1.383a3.133,3.133,0,0,0,.663-1.087c0-.007,0-.014.006-.021l.005-.016a3.573,3.573,0,0,0,.112-.382c0-.01.005-.02.007-.03a5.951,5.951,0,0,0,.044-2.1c-1.015-7.641-17.571-11.708-29.135-11.708a24.553,24.553,0,0,0-5.307.46c-4.112.957-10.4,4.329-19.206,10.3l.027.037c.1.135.2.275.3.422l.007.009q.161.23.328.477l.019.028q.164.243.332.5l.036.056q.167.258.34.531l.033.052c.365.581.744,1.209,1.133,1.874l.021.035q.19.326.383.663l.024.042c.4.7.807,1.431,1.217,2.186l.008.014q.2.373.406.754l.016.029c.415.775.83,1.568,1.242,2.368v0q.2.393.4.788l.018.037q.2.391.4.783l.012.025q.4.8.793,1.6v0q.19.389.377.774l.023.048q.182.376.36.748l.026.054q.368.77.715,1.514v0q.167.357.327.706l.035.075q.156.339.306.67l.031.068q.152.334.3.659l.018.041q.295.659.56,1.271l.032.074q.123.286.24.56l.036.085c.077.182.152.361.224.534l.022.053q.222.538.408,1.012l.016.041a29.308,29.308,0,0,1,11.79-2.886c4.059,0,7.31,1.238,10.454,2.433,3.332,1.268,6.779,2.579,11.407,2.579.763,0,1.55-.036,2.341-.107,4-.344,13.164-5.093,21.8-11.292,9.062-6.5,15.028-12.865,14.846-15.83C199.655,296.84,196.886,296.157,194.6,296.157Z" transform="translate(33.316 -194.675)" fill="#fce5d8"/>
      <g id="Group_5648" data-name="Group 5648" transform="translate(41.982 2.903)">
        <rect id="Rectangle_1689" data-name="Rectangle 1689" width="83.284" height="77.704" transform="translate(5.949 54.257)" fill="#e67e22"/>
        <g id="Group_5649" data-name="Group 5649" transform="translate(6.006 3.837)">
          <g transform="matrix(1, 0, 0, 1, -47.99, -6.74)" filter="url(#Path_18180)">
            <path id="Path_18180-2" data-name="Path 18180" d="M1.731,5.673,35.173,6.832l.137,3.941L1.867,9.614Z" transform="translate(47.99 74.88) rotate(-45)" fill="#ff2957"/>
          </g>
          <g transform="matrix(1, 0, 0, 1, -47.99, -6.74)" filter="url(#Path_18171)">
            <path id="Path_18171-2" data-name="Path 18171" d="M10.176,15.468a5.93,5.93,0,0,0,6.117-5.707,5.93,5.93,0,0,0-6.117-5.707A5.93,5.93,0,0,0,4.059,9.761,5.93,5.93,0,0,0,10.176,15.468Zm0-7.61a1.975,1.975,0,0,1,2.039,1.9,1.975,1.975,0,0,1-2.039,1.9,1.975,1.975,0,0,1-2.039-1.9A1.975,1.975,0,0,1,10.176,7.859Z" transform="translate(48.57 50.22)" fill="#ff2957"/>
          </g>
          <g transform="matrix(1, 0, 0, 1, -47.99, -6.74)" filter="url(#Path_18172)">
            <path id="Path_18172-2" data-name="Path 18172" d="M14.176,8.054a5.93,5.93,0,0,0-6.117,5.707,5.93,5.93,0,0,0,6.117,5.707,5.93,5.93,0,0,0,6.117-5.707A5.93,5.93,0,0,0,14.176,8.054Zm0,7.61a1.975,1.975,0,0,1-2.039-1.9,2.044,2.044,0,0,1,4.078,0A1.975,1.975,0,0,1,14.176,15.664Z" transform="translate(60.88 61.44)" fill="#ff2957"/>
          </g>
          <g id="Layer_1" transform="translate(33.314 59.949) rotate(-28)">
            <g id="Group_5570-2" data-name="Group 5570" transform="translate(0 0)">
              <path id="Path_17831" data-name="Path 17831" d="M28.721,17.9A2.093,2.093,0,0,1,26.5,20.032L5.477,19.44a2.4,2.4,0,0,1-2.349-2.262l-.4-13.786,25.593.721Z" transform="translate(1.639 8.885)" fill="#60287e"/>
              <path id="Path_17832" data-name="Path 17832" d="M31.4,7.63c.024.835-.978,1.483-2.241,1.448L3.566,8.356C2.3,8.32,1.261,7.615,1.236,6.779L1.183,4.965c-.024-.835.978-1.483,2.241-1.448l25.593.721c1.262.036,2.3.741,2.329,1.576Z" transform="translate(0.814 4.505)" fill="#f1c40f"/>
              <path id="Path_18181" data-name="Path 18181" d="M3.063.982l4.589.129.559,19.065-4.589-.129Z" transform="translate(11.677 7.336)" fill="none" stroke="#f39c12" stroke-linecap="round" stroke-width="1"/>
              <path id="Path_17848" data-name="Path 17848" d="M.647,3.579a45.133,45.133,0,0,1,4.286-2.45,2.494,2.494,0,0,1,3.3,1.17c.542.949.487,3.61.487,3.61" transform="translate(19.137 2.78)" fill="none" stroke="#f39c12" stroke-linecap="round" stroke-linejoin="round" stroke-miterlimit="10" stroke-width="1"/>
              <path id="Path_17849" data-name="Path 17849" d="M8.869,3.45A42.321,42.321,0,0,0,4.484.787a2.3,2.3,0,0,0-3.24.985C.757,2.693.969,5.362.969,5.362" transform="translate(5.333 2.719)" fill="none" stroke="#f39c12" stroke-linecap="round" stroke-linejoin="round" stroke-miterlimit="10" stroke-width="1"/>
              <path id="Path_17850" data-name="Path 17850" d="M.85,4.364A2.893,2.893,0,0,1,.641,3.37,2.774,2.774,0,0,1,3.584.542a3.186,3.186,0,0,1,3.113,3,2.742,2.742,0,0,1-.15.984" transform="translate(13.351 3.939)" fill="none" stroke="#f39c12" stroke-linecap="round" stroke-linejoin="round" stroke-miterlimit="10" stroke-width="1"/>
            </g>
          </g>
          <path id="iconfinder_fireworks_2_811451" d="M10.269,7.688a6.172,6.172,0,0,1,5.525.908,6.427,6.427,0,0,1,3.021,4.584c.118.241,1.073.261,1.208-.013a5.311,5.311,0,0,0-.444-2.63,9.083,9.083,0,0,0-4.9-4.109,6.685,6.685,0,0,0-5.388.287c-.29.426.442,1.113.974.975Zm11.107,2.451a7.827,7.827,0,0,0-.218,2.92c.167.263.522.179.7.076a15.267,15.267,0,0,0,.047-3.037c-.022-.122-.3-.041-.53.04ZM9.358,20.595a9.761,9.761,0,0,1,5.253-3.173c.252-.032-.048-.733-.329-.724a7.838,7.838,0,0,0-3.322.959A16.215,16.215,0,0,0,5.389,23.7a14.2,14.2,0,0,0-.87,6.882c.239.434,1.6.123,1.712-.077a18.014,18.014,0,0,0,.156-2.551,12.636,12.636,0,0,1,2.971-7.363Zm13.013-6.961a1.435,1.435,0,0,0,.868.365c.2-.03.426-.747.861-1.789s1.555-2.251,3.452-4.244,5.916-2.728,6.021-2.829.273-.694.049-.785a14.755,14.755,0,0,0-6.775,2.8c-2.553,2.086-4.628,6.17-4.477,6.48ZM26.836,17.1c.128-.078,1.094-1.233,2.877-2.757a6.813,6.813,0,0,1,6.157-1.585,4.262,4.262,0,0,1,2.683,2.588c.145.166.655-.045.791-.368s.1-.812-1.209-2.29-3.718-1.623-6.317-.515a20.425,20.425,0,0,0-5.643,4.408c-.061.368.535.595.663.518Zm8.192-8.723A33.728,33.728,0,0,1,38.48,6.5a30.909,30.909,0,0,1,2.364,3.11.652.652,0,0,0,.982-.054c.315-.377-.292-3.492-.237-3.641a9.047,9.047,0,0,1,1.567-1.884c.513-.359.733-.9.565-1.168s-2.547-.534-2.794-.649S40.7.732,40.564.148s-.562-.5-.972-.264-1.878,2.162-2.311,2.373-2.2-.2-2.492.125c-.6.679,1.178,2.486,1.194,2.779a21.8,21.8,0,0,1-1.794,2.675c-.21.35.4.821.839.538ZM36,3.225c.1-.027,1.663-.125,1.663-.125s2.093-1.828,2.169-1.83.021,1.738.2,1.805a18.737,18.737,0,0,1,2.122.45c.021.121-1.57,1.981-1.6,2.081s-.064,1.226-.189,1.23S39.045,5.36,38.87,5.365A25.232,25.232,0,0,1,36.5,6.393c-.173-.093.922-1.351.779-1.592S36,3.225,36,3.225Zm-4.379-.6A1.557,1.557,0,0,0,32.967.453a1.445,1.445,0,0,0-2.322-.467c-1.681,1.521-.289,2.8.972,2.639ZM31.632.544a.772.772,0,0,1,.493,1.111.958.958,0,0,1-1.306-.009C30.5,1.314,30.929.516,31.632.544Zm-1.4,9.151c.156-.177-.227-.752-.474-.891s-1.8.47-3,1.757a12.576,12.576,0,0,0-2.427,3.6c.02.146.965.484,1.065.481a15.415,15.415,0,0,0,1.655-2.279A12.76,12.76,0,0,1,30.237,9.7ZM18.93,4.8,21.1,7.845a2.214,2.214,0,0,0,1.355.105c.254-.107,1.828-3.779,2.032-3.882s2.507-.64,2.736-.671.446-.553.455-.847S24.858.187,24.76.092A33.976,33.976,0,0,1,25.094-3.3c.072-.639-.356-.65-.607-.642S20.959-.5,20.732-.495a32.946,32.946,0,0,1-2.91-1.746c-.322-.186-.66.192-.69.365s.621,4.216.643,4.314S15.2,4.243,15.418,4.614s3.514.186,3.514.186Zm.051-2.376a14.731,14.731,0,0,1-.638-2.87A21.615,21.615,0,0,0,20.867.824c.3.016,2.98-2.833,3.1-2.763S23.646.4,23.863.684s2.006,1.75,1.926,1.875-2.028.552-2.186.753-1.492,3.5-1.667,3.479-1.87-2.856-2.169-2.945a21.814,21.814,0,0,0-2.413,0s1.7-1.252,1.629-1.421Zm-1.315,13.8c.081-.222-.317-1.116-1.429-2.526s-3.2-2.622-3.667-2.458c-.381.133-.551.726-.4.869a16.03,16.03,0,0,1,2.788,1.628,10.26,10.26,0,0,1,2.027,2.655c.192.288.6.055.684-.168Zm6.128,4.122c-.122-.094-1.3-4.171-1.753-4.181s-3.09,3.939-3.118,4.013c0,0-3.356-.362-3.659.479s1.748,3.546,1.742,3.717-1.273,2.9-1.358,3.2-.075.811.271,1,4.024-2.45,4.35-2.435,4.324,2.34,4.709,2.083-.464-3.61-.41-3.71S27.243,22.566,27.236,22,23.917,20.44,23.794,20.347Zm-.144,3.727c-.034.295.512,2.873.261,2.881s-3.278-2.054-3.458-1.927A28.349,28.349,0,0,1,17,26.873c-.148-.094,1.339-2.613,1.2-2.829s-2.254-2.624-2.049-2.753c.275-.173,3.14.05,3.448-.155s2-3,2.279-2.91.771,2.621.968,2.762,2.982,1.058,3.028,1.179-2.187,1.61-2.223,1.9ZM40.885,16.3c-1.274.576-1.463,2.566-.774,3.059s2.541.731,3.093-.829A1.824,1.824,0,0,0,40.886,16.3Zm-.049,2.375a.963.963,0,0,1,.524-1.485c.412-.138.962.583,1,.949S41.344,19.294,40.836,18.673ZM39.36,24.79c-.221-.14-.33-2.46-.5-2.507-.723-.2-3.114,1.492-3.266,1.521a17.4,17.4,0,0,0-1.97-.479,3.092,3.092,0,0,0-2.121.334c-.028.1,2.206,3.36,2.225,3.556s-2.422,2.669-2.58,2.944.124.805.3.9,3.843-.755,4.144-.739,1.663,3.035,1.736,3.13a1.009,1.009,0,0,0,.876.12c.231-.154.834-4.115.941-4.314a13.865,13.865,0,0,1,2.168-1c.509-.236,1.175-.623,1.115-1.087S39.583,24.93,39.36,24.79ZM38,28.9c0,.122-.2,2.479-.43,2.486s-1.312-2.236-1.462-2.232a22.036,22.036,0,0,1-3.055.46c-.147-.142,2.033-2.315,1.912-2.483a22.094,22.094,0,0,1-1.9-2.757c.063-.138,2.542.681,2.771.6a17.516,17.516,0,0,1,2.329-1.3c.2.093.173,1.636.344,1.8a19.455,19.455,0,0,1,2.332,1.716c-.031.2-2.84,1.58-2.843,1.7ZM34.981,18.632c.288.456,1.811.753,1.72-.346s-1.735-2.3-4.406-2.093-5.515,3.054-5.583,3.257c-.222.667.937.583,1.291.474a17.7,17.7,0,0,1,3.491-2.286,2.869,2.869,0,0,1,3.487.994Zm-23.8-3.088c-.158-1.366-2.1-1.535-2.793-.723-1.044,1.233.061,2.031.859,2.252a1.444,1.444,0,0,0,1.933-1.528Zm-2.135-.081a.825.825,0,0,1,1.132-.035.565.565,0,0,1-.6.8c-.5-.083-.764-.491-.529-.767Zm2.534,9.667a1.542,1.542,0,0,0,1.275,2.605,1.859,1.859,0,0,0,1.82-2.725A2.041,2.041,0,0,0,11.577,25.13Zm1.478,1.742c-.929-.02-1.207-.8-.361-1.335a.752.752,0,1,1,.36,1.335ZM4.241,13.9c.078-.051,2.159.106,2.787.086s1.091-.3,1.1-.647-1.943-2.12-2.038-2.288S7.837,7.494,7.465,7.333s-3.018.851-3.119.855-2.107-2.4-2.385-2.425a.738.738,0,0,0-.615.411C1.238,6.4.728,9.008.647,9.183s-2.574,1.94-2.731,2.117a1.483,1.483,0,0,0-.134,1.056c.091.316,3.285,1.05,3.359,1.1s-.029,2.5.005,3.012.424.892.754.809S4.168,13.946,4.243,13.9ZM-.987,11.584c-.1-.213,2.437-1.569,2.439-1.643A10.874,10.874,0,0,1,2.18,7.592c.176-.005,1.531,1.643,1.707,1.662a18.94,18.94,0,0,1,1.973-.428c.173.093-1.2,2.24-1.13,2.361s1.711,1.538,1.581,1.665S3.8,12.808,3.7,12.859a22.327,22.327,0,0,1-1.48,2.3c-.174-.045-.155-2.249-.276-2.416S-.942,11.679-.989,11.582Zm9.6-7.028c.917-.4,1.681-2.279.574-3.053S5.993,2.06,5.924,2.85C5.766,4.692,7.693,4.951,8.61,4.556ZM7.378,2.218c.417-.2,1.439-.216,1.409.716s-.686,1.049-1.408.8-.333-1.36,0-1.518Zm.317,32.85c-.172-.118.019-2.921-.331-3.075-.569-.252-2.683,2.213-3.01,2.223s-2.063-.746-2.338-.761a1.376,1.376,0,0,0-1.036.937c-.091.492,1.364,2.946,1.558,3.184s-1.275,2.169-1.466,2.639a.477.477,0,0,0,.607.643c.332-.132,2.683-1.357,2.833-1.361s1.28,1.675,1.965,2.266.978.8,1.29.5.176-3.188.306-3.315,2.131-.629,2.593-.937.6-.63.335-1.038A23.469,23.469,0,0,0,7.7,35.066Zm-.6,2.98c-.107.175-.132,2.526-.257,2.53S5.424,38.541,5.2,38.548s-2.076.529-2.151.481S3.9,37.485,3.8,37.34s-1.629-2.57-1.646-2.789c-.021-.261,2.253,1.057,2.586.851S6.4,33.71,6.6,33.8s-.157,1.792.186,2.051,2.794,1.482,2.792,1.555-2.378.465-2.484.639ZM1.871,10.2A19.175,19.175,0,0,0,.155,11.206c-.156.177.29.383.54.425a3.59,3.59,0,0,0,1.355-.752c.13-.151-.08-.659-.179-.68ZM22.2,4.824c.211-.324-1.065-1.558-1.459-1.546a.732.732,0,0,0-.492.43,9.173,9.173,0,0,0,1.2,1.751c.1.071.537-.31.748-.635ZM34.489,25.431a3.7,3.7,0,0,0,.767,1.176.338.338,0,0,0,.459-.21c.03-.148-.7-1.056-.7-1.056s-.552.021-.53.089ZM20.381,20.917c-.251.008-.576.753-.73.856s-1.274-.151-1.382-.006a1.192,1.192,0,0,0-.1.762,5.158,5.158,0,0,0,1.918.528c.5-.015.938-1.84.943-1.987s-.4-.16-.648-.152Z" transform="matrix(0.848, 0.53, -0.53, 0.848, 46.373, 0)" fill="#f1c40f"/>
        </g>
        <path id="Path_17836" data-name="Path 17836" d="M4,5V93.8H99.182V5Z" transform="translate(-4 65.907)" fill="#f1c40f"/>
        <path id="Path_17837" data-name="Path 17837" d="M15.9,1031.4,4,1042.5H15.9Z" transform="translate(-4 -971.593)" fill="#f39c12"/>
        <path id="Path_17838" data-name="Path 17838" d="M5,1030.4v11.1l5.949-5.55Z" transform="translate(0.949 -976.144)" fill="#f1c40f"/>
        <path id="Path_17839" data-name="Path 17839" d="M18,1031.4l11.9,11.1H18Z" transform="translate(65.284 -971.593)" fill="#f39c12"/>
        <path id="Path_17840" data-name="Path 17840" d="M23.949,1030.4v11.1L18,1035.95Z" transform="translate(65.284 -976.144)" fill="#f1c40f"/>
        <path id="Path_17842" data-name="Path 17842" d="M36.744,1080.8C20.317,1080.8,7,1068.036,7,1053.051V1036.4h5.949v16.651c0,12.211,10.654,22.2,23.8,22.2s23.8-9.991,23.8-22.2V1036.4h5.949v16.651C66.489,1068.036,53.169,1080.8,36.744,1080.8Z" transform="translate(10.847 -948.842)" fill="#60287e"/>
        <path id="Path_17844" data-name="Path 17844" d="M4,1049.4l5.949,5.55H93.233l5.949-5.55Z" transform="translate(-4 -889.689)" fill="#f39c12"/>
        <path id="Path_17847" data-name="Path 17847" d="M99.182,1054.95l-5.949-5.549H9.949L4,1054.95Z" transform="translate(-4 -884.057)" fill="rgba(0,0,0,0.29)"/>
        <path id="Path_1" data-name="Path 1" d="M0,5.876v7.539A2.058,2.058,0,0,0,1.111,15.2l7.006,3.761a2.375,2.375,0,0,0,2.222,0L17.345,15.2a2.058,2.058,0,0,0,1.111-1.789V5.876a2.058,2.058,0,0,0-1.111-1.789L10.321.326A2.375,2.375,0,0,0,8.1.326L1.111,4.087A2.058,2.058,0,0,0,0,5.876" transform="translate(70.924 127.175)" fill="#6f368e"/>
        <path id="Path_2" data-name="Path 2" d="M30.069,31.882a.518.518,0,0,0-1.034,0v3.6a1.175,1.175,0,0,1-2.344,0V33.458A2.14,2.14,0,0,0,24.484,31.4a2.292,2.292,0,0,0-1.689.74,2.235,2.235,0,0,0-1.689-.74A2.14,2.14,0,0,0,18.9,33.458v3.6a.518.518,0,0,0,1.034,0V33.442a1.175,1.175,0,0,1,2.344,0v3.6a.518.518,0,0,0,1.034,0v-3.6a1.175,1.175,0,0,1,2.344,0v2.026a2.136,2.136,0,0,0,2.189,2.058,2.384,2.384,0,0,0,1.172-.306v2.091a.518.518,0,0,0,1.034,0V35.485h0v-3.6Z" transform="translate(55.56 101.126)" fill="#fff"/>
        <path id="Path_3" data-name="Path 3" d="M19.984,75.736a.119.119,0,0,1-.034-.064l-.052-.048a.237.237,0,0,1-.069-.048c-.017-.016-.034-.016-.086-.032l-.069-.032a.848.848,0,0,1-.086-.032.736.736,0,0,1-.155-.064c-.086-.032-.121-.08-.121-.145q0-.145.259-.145a.7.7,0,0,1,.276.048c.034.016.052,0,.069-.032l.052-.113c.017-.032,0-.048-.034-.064a.966.966,0,0,0-.4-.064c-.345,0-.517.129-.517.37a.417.417,0,0,0,.017.145.256.256,0,0,0,.052.1c.017.032.052.048.1.08a1.011,1.011,0,0,0,.121.064.61.61,0,0,0,.138.048.847.847,0,0,0,.086.032.134.134,0,0,1,.069.032.237.237,0,0,1,.069.048c.017.016.017.032.034.048s.017.032.017.064a.163.163,0,0,1-.086.129.414.414,0,0,1-.224.048.742.742,0,0,1-.327-.064c-.034-.016-.052,0-.069.032l-.052.129c-.017.032,0,.048.034.064a1.1,1.1,0,0,0,.448.08.713.713,0,0,0,.4-.1A.318.318,0,0,0,20,75.961v-.1c.017-.08,0-.113-.017-.129" transform="translate(55.51 64.621)" fill="#fff"/>
        <path id="Path_4" data-name="Path 4" d="M30.717,75h-.965q-.052,0-.052.048v.145q0,.048.052.048H30.1V76.3q0,.048.052.048h.19q.052,0,.052-.048V75.241h.327q.052,0,.052-.048v-.145q0-.048-.052-.048" transform="translate(46.622 64.537)" fill="#fff"/>
        <path id="Path_5" data-name="Path 5" d="M41.255,74.8a.674.674,0,0,0-.483.177.767.767,0,0,0-.172.531.677.677,0,0,0,.172.515.632.632,0,0,0,.465.177.674.674,0,0,0,.483-.177.752.752,0,0,0,.172-.515.741.741,0,0,0-.172-.531.632.632,0,0,0-.465-.177m0,1.174c-.241,0-.345-.161-.345-.466s.121-.466.345-.466.345.161.345.466-.121.466-.345.466" transform="translate(37.6 64.705)" fill="#fff"/>
        <path id="Path_6" data-name="Path 6" d="M54.358,75.868a.383.383,0,0,0,.362-.4.414.414,0,0,0-.155-.354A.7.7,0,0,0,54.117,75h-.465q-.052,0-.052.048V76.3q0,.048.052.048h.19q.052,0,.052-.048v-.4h.19l.327.418a.071.071,0,0,0,.069.032h.19c.017,0,.034,0,.034-.016a.057.057,0,0,0-.017-.048Zm-.241-.193h-.224v-.45h.224a.441.441,0,0,1,.241.048.194.194,0,0,1,.069.177.212.212,0,0,1-.069.177.484.484,0,0,1-.241.048" transform="translate(26.841 64.537)" fill="#fff"/>
        <path id="Path_7" data-name="Path 7" d="M66.479,76.126h-.586v-.354h.552q.052,0,.052-.048v-.129q0-.048-.052-.048h-.552v-.322h.569q.052,0,.052-.048v-.129q0-.048-.052-.048h-.81q-.052,0-.052.048V76.3q0,.048.052.048h.81q.052,0,.052-.048v-.129c.017-.032,0-.048-.034-.048" transform="translate(16.909 64.537)" fill="#fff"/>
        <rect id="Rectangle_1691" data-name="Rectangle 1691" width="95.068" height="19.711" transform="translate(0 73.828)" fill="#f1c40f"/>
      </g>
      <g id="Group_5647" data-name="Group 5647" transform="translate(167.632 21.692)">
        <path id="Path_17829" data-name="Path 17829" d="M71.033,32.243a107.913,107.913,0,0,1,9.8-6.17c3.05-1.369,5.781-.453,7.349,2.584,1.156,2.241.856,8.631.856,8.631" transform="translate(-31.194 -25.452)" fill="none" stroke="#f39c12" stroke-linecap="round" stroke-linejoin="round" stroke-miterlimit="10" stroke-width="3"/>
        <path id="Path_17830" data-name="Path 17830" d="M52.985,32.165s-6.56-4.691-9.684-6.093c-3.051-1.369-5.781-.453-7.35,2.584-1.156,2.241-.856,8.631-.856,8.631" transform="translate(-25.684 -25.452)" fill="none" stroke="#f39c12" stroke-linecap="round" stroke-linejoin="round" stroke-miterlimit="10" stroke-width="3"/>
        <path id="Path_17831-2" data-name="Path 17831" d="M87.55,91.522a5.2,5.2,0,0,1-5.133,5.271H35.183a5.2,5.2,0,0,1-5.133-5.271V58.464h57.5Z" transform="translate(-24.917 -29.761)" fill="#f1c40f" stroke="#f1c40f" stroke-linecap="round" stroke-linejoin="round" stroke-miterlimit="10" stroke-width="3"/>
        <path id="Path_17832-2" data-name="Path 17832" d="M91.755,50.661a5.2,5.2,0,0,1-5.133,5.271h-57.5a5.2,5.2,0,0,1-5.133-5.271V44.336a5.2,5.2,0,0,1,5.133-5.271h57.5a5.2,5.2,0,0,1,5.133,5.271Z" transform="translate(-23.988 -27.229)" fill="#e67e22"/>
        <path id="Path_17833" data-name="Path 17833" d="M55.982,37.66a7.124,7.124,0,0,1-.4-2.371,6.8,6.8,0,1,1,13.605,0,7.171,7.171,0,0,1-.4,2.372" transform="translate(-28.827 -25.824)" fill="none" stroke="#f39c12" stroke-linecap="round" stroke-linejoin="round" stroke-miterlimit="10" stroke-width="3"/>
        <rect id="Rectangle_1685" data-name="Rectangle 1685" width="10.311" height="55.196" transform="translate(28.728 11.836)" stroke-width="3" stroke="#f39c12" stroke-linecap="round" stroke-linejoin="round" stroke-miterlimit="10" fill="none"/>
        <path id="Path_1-2" data-name="Path 1" d="M0,5.876v7.539A2.089,2.089,0,0,0,1.01,15.2l6.366,3.761a1.985,1.985,0,0,0,2.019,0L15.761,15.2a2.089,2.089,0,0,0,1.01-1.789V5.876a2.089,2.089,0,0,0-1.01-1.789L9.379.326a1.985,1.985,0,0,0-2.019,0L1.01,4.087A2.089,2.089,0,0,0,0,5.876" transform="translate(25.532 19.229)" fill="#6f368e"/>
        <path id="Path_2-2" data-name="Path 2" d="M29.049,31.882a.47.47,0,1,0-.94,0v3.6a1.065,1.065,0,1,1-2.13,0V33.458a2.036,2.036,0,0,0-2-2.058,2,2,0,0,0-1.535.74A1.954,1.954,0,0,0,20.9,31.4a2.036,2.036,0,0,0-2,2.058v3.6a.47.47,0,1,0,.94,0V33.442a1.065,1.065,0,1,1,2.13,0v3.6a.47.47,0,1,0,.94,0v-3.6a1.065,1.065,0,1,1,2.13,0v2.026a1.994,1.994,0,0,0,3.054,1.753v2.091a.47.47,0,1,0,.94,0V35.485h0v-3.6Z" transform="translate(9.846 -6.819)" fill="#fff"/>
        <path id="Path_3-2" data-name="Path 3" d="M19.891,75.736a.123.123,0,0,1-.031-.064l-.047-.048a.217.217,0,0,1-.063-.048c-.016-.016-.031-.016-.078-.032l-.063-.032c-.016,0-.031-.016-.078-.032a.638.638,0,0,1-.141-.064.149.149,0,0,1-.11-.145q0-.145.235-.145a.583.583,0,0,1,.251.048c.031.016.047,0,.063-.032l.047-.113c.016-.032,0-.048-.031-.064a.806.806,0,0,0-.36-.064c-.313,0-.47.129-.47.37a.457.457,0,0,0,.016.145.264.264,0,0,0,.047.1c.016.032.047.048.094.08a.893.893,0,0,0,.11.064.522.522,0,0,0,.125.048c.047.016.063.032.078.032a.118.118,0,0,1,.063.032.217.217,0,0,1,.063.048c.016.016.016.032.031.048s.016.032.016.064a.165.165,0,0,1-.078.129.348.348,0,0,1-.2.048.622.622,0,0,1-.3-.064c-.031-.016-.047,0-.063.032l-.047.129c-.016.032,0,.048.031.064a.917.917,0,0,0,.407.08.6.6,0,0,0,.36-.1.327.327,0,0,0,.141-.289v-.1c.016-.08,0-.113-.016-.129" transform="translate(9.795 -43.324)" fill="#fff"/>
        <path id="Path_4-2" data-name="Path 4" d="M30.624,75h-.877a.042.042,0,0,0-.047.048v.145a.042.042,0,0,0,.047.048h.313V76.3a.042.042,0,0,0,.047.048h.172a.042.042,0,0,0,.047-.048V75.241h.3a.042.042,0,0,0,.047-.048v-.145A.042.042,0,0,0,30.624,75" transform="translate(0.737 -43.408)" fill="#fff"/>
        <path id="Path_5-2" data-name="Path 5" d="M41.2,74.8a.581.581,0,0,0-.439.177.817.817,0,0,0-.157.531.719.719,0,0,0,.157.515.547.547,0,0,0,.423.177.581.581,0,0,0,.439-.177.8.8,0,0,0,.157-.515.79.79,0,0,0-.157-.531A.547.547,0,0,0,41.2,74.8m0,1.174c-.219,0-.313-.161-.313-.466s.11-.466.313-.466.313.161.313.466-.11.466-.313.466" transform="translate(-8.455 -43.24)" fill="#fff"/>
        <path id="Path_6-2" data-name="Path 6" d="M54.289,75.868a.372.372,0,0,0,.329-.4.433.433,0,0,0-.141-.354A.591.591,0,0,0,54.07,75h-.423a.042.042,0,0,0-.047.048V76.3a.042.042,0,0,0,.047.048h.172a.042.042,0,0,0,.047-.048v-.4h.172l.3.418a.062.062,0,0,0,.063.032h.172c.016,0,.031,0,.031-.016a.06.06,0,0,0-.016-.048Zm-.219-.193h-.2v-.45h.2a.371.371,0,0,1,.219.048.2.2,0,0,1,.063.177.223.223,0,0,1-.063.177.406.406,0,0,1-.219.048" transform="translate(-19.419 -43.408)" fill="#fff"/>
        <path id="Path_7-2" data-name="Path 7" d="M66.4,76.126h-.533v-.354h.5a.042.042,0,0,0,.047-.048v-.129a.042.042,0,0,0-.047-.048h-.5v-.322h.517a.042.042,0,0,0,.047-.048v-.129A.042.042,0,0,0,66.383,75h-.736a.042.042,0,0,0-.047.048V76.3a.042.042,0,0,0,.047.048h.736a.042.042,0,0,0,.047-.048v-.129c.016-.032,0-.048-.031-.048" transform="translate(-29.54 -43.408)" fill="#fff"/>
      </g>
    </g>
  </g>
</svg>
